Use cases of regstudies R package
…
# next, we calculate the table which can be used for classification
ltout<-cohort %>%
  left_join(reg %>% select(personid,CODE1,admissiondate,dischargedate),by="personid") %>%
  mutate(postingdate=ymd(postingdate)) %>%
  datefilter(indexdate=postingdate,range=years(2),admissiondate,dischargedate) %>% # filterin the diagnosis codes which are in the interval for each individual!
  classify_long(icdcodes=CODE1,diag_tbl=sel_classes)
#> [1] "Element 'regex.rm' in use. Taking exceptions in use."
ltout
#> # A tibble: 206,212 x 5
#>    CODE1 classification icd   label          match
#>    <chr> <chr>          <chr> <chr>          <int>
#>  1 -     elixhauser     icd9  elixh_aids         0
#>  2 -     elixhauser     icd9  elixh_ld           0
#>  3 -     elixhauser     icd9  elixh_pvd          0
#>  4 -     elixhauser     icd9  elixh_valv         0
#>  5 -     elixhauser     icd9  elixh_solidtum     0
#>  6 -     elixhauser     icd9  elixh_metacanc     0
#>  7 -     elixhauser     icd9  elixh_lymph        0
#>  8 -     elixhauser     icd9  elixh_hypothy      0
#>  9 -     elixhauser     icd9  elixh_diabunc      0
#> 10 -     elixhauser     icd9  elixh_diabc        0
#> # ... with 206,202 more rows
…
