Data wrangling for register studies • regstudies
…
library(regstudies)
first_events_d <- elixh_d %>%
  filter(!is.na(class_elixhauser)) %>%
  group_by(personid,class_elixhauser) %>%
  mutate(min_date=min(adm_date,disc_date)) %>%
  filter_date_first(min_date)
first_events_d

## # A tibble: 4,110 x 12
## # Groups:   personid, class_elixhauser [4,110]
##    personid gender postingdate CODE1 adm_date   disc_date  icd  
##       <int>  <dbl> <date>      <chr> <date>     <date>     <chr>
##  1     1101      2 2000-01-01  39891 1990-09-19 1991-03-05 icd9 
##  2     1101      2 2000-01-01  2409  1991-12-19 1992-05-27 icd9 
##  3     1101      2 2000-01-01  C81   1995-10-04 1996-01-16 icd10
##  4     1101      2 2000-01-01  196   1990-03-28 1990-05-20 icd9 
##  5     1101      2 2000-01-01  3341  1993-07-21 1993-11-13 icd9 
##  6     1101      2 2000-01-01  3341  1993-07-21 1993-11-13 icd9 
##  7     1101      2 2000-01-01  4150  1992-03-23 1992-08-13 icd9 
##  8     1101      2 2000-01-01  K257  1999-12-01 2000-04-27 icd10
##  9     1101      2 2000-01-01  0930  1994-12-18 1995-05-26 icd9 
## 10     1101      2 2000-01-01  140   1994-06-02 1994-08-17 icd9 
## # … with 4,100 more rows, and 5 more variables: class_elixhauser <chr>,
## #   label_elixhauser <chr>, score_AHRQ <dbl>, score_van_Walraven <dbl>,
## #   min_date <date>
…
