Example of regstudies workflow • regstudies
…
Get first event per id

With tidyverse verbs you can slice first occurence by

d %>%
  group_by(personid) %>%
  arrange(adm_date) %>%
  dplyr::slice(1)

## # A tibble: 300 x 7
## # Groups:   personid [300]
##    personid CODE1 adm_date   disc_date  gender postingdate icd  
##       <int> <chr> <date>     <date>      <dbl> <date>      <chr>
##  1     1201 I43   1990-01-22 1990-03-06      2 2000-01-01  icd9 
##  2     1202 I06   1990-04-08 1990-09-23      1 2000-01-01  icd9 
##  3     1203 I61   1990-09-15 1990-10-13      2 2000-01-01  icd9 
##  4     1204 I92   1990-04-29 1990-06-27      2 2000-01-01  icd9 
##  5     1205 E31   1990-01-04 1990-01-24      1 2000-01-01  icd9 
##  6     1206 E06   1990-01-18 1990-04-25      1 2000-01-01  icd9 
##  7     1207 F58   1990-02-19 1990-07-17      2 2000-01-01  icd9 
##  8     1208 E28   1990-01-23 1990-02-19      1 2000-01-01  icd9 
##  9     1209 I93   1990-06-22 1990-07-19      1 2000-01-01  icd9 
## 10     1210 E40   1990-03-05 1990-04-25      1 2000-01-01  icd9 
## # ... with 290 more rows

and with regstudies verbs you can do the same with

d %>%
  group_by(personid) %>%
  regstudies::get_first(var = adm_date)

## # A tibble: 300 x 7
## # Groups:   personid [300]
##    personid CODE1 adm_date   disc_date  gender postingdate icd  
##       <int> <chr> <date>     <date>      <dbl> <date>      <chr>
##  1     1201 I43   1990-01-22 1990-03-06      2 2000-01-01  icd9 
##  2     1202 I06   1990-04-08 1990-09-23      1 2000-01-01  icd9 
##  3     1203 I61   1990-09-15 1990-10-13      2 2000-01-01  icd9 
##  4     1204 I92   1990-04-29 1990-06-27      2 2000-01-01  icd9 
##  5     1205 E31   1990-01-04 1990-01-24      1 2000-01-01  icd9 
##  6     1206 E06   1990-01-18 1990-04-25      1 2000-01-01  icd9 
##  7     1207 F58   1990-02-19 1990-07-17      2 2000-01-01  icd9 
##  8     1208 E28   1990-01-23 1990-02-19      1 2000-01-01  icd9 
##  9     1209 I93   1990-06-22 1990-07-19      1 2000-01-01  icd9 
## 10     1210 E40   1990-03-05 1990-04-25      1 2000-01-01  icd9 
## # ... with 290 more rows
…
Calculate Elixhauser scores by id's

# Calculate scores
filtered_d %>%
  classify_elixhauser(icd_codes = CODE1) %>%
  sum_score(score_AHRQ, score_van_Walraven)

## Joining, by = "label"

## [1] "Element 'regex.rm' NOT in use. Exceptions omitted."

## # A tibble: 300 x 3
##    personid `sum(score_AHRQ)` `sum(score_van_Walraven)`
##       <int>             <int>                     <int>
##  1     1201                -1                         0
##  2     1202                10                         5
##  3     1203                 0                         0
##  4     1204                -5                         0
##  5     1205                 9                         6
##  6     1206                 0                         0
##  7     1207                -2                         6
##  8     1208                 0                        -1
##  9     1209                -6                        -1
## 10     1210                 0                         0
## # ... with 290 more rows
…
