Introduction • regstudies
…
## create a new help variable `icd` which determines if code is ICD-8, ICD-9 or ICD-10 by year
d <- d %>%
  mutate(icd = case_when(
    year(disc_date) < 1987 ~ "icd8",
    year(disc_date) < 1996 & year(disc_date)>=1987 ~ "icd9",
    year(disc_date) >= 1996 ~ "icd10"
    ))

Elixhauser classification and scores

With function classify_elixhauser() and sum_score() you can use Elixhauser classification and calculate scores. Check more info of classifications from classification tables-section.

regstudies:::elixhauser_classes

## # A tibble: 31 x 6
##    class_elixhauser label_elixhauser  icd9    icd10  score_AHRQ score_van_Walra…
##    <chr>            <chr>             <chr>   <chr>       <dbl>            <dbl>
##  1 chf              Congestive Heart… ^39891… ^I099…          9                7
##  2 carit            Cardiac arrhytmi… ^4260|… ^I441…          0                5
##  3 valv             Valvular disease  ^0932|… ^A520…          0               -1
##  4 pcd              Pulmonary circul… ^4150|… ^I26|…          6                4
##  5 pvd              Peripheral vascu… ^0930|… ^I70|…          3                2
##  6 hypunc           Hypertension, un… ^401    ^I10           -1                0
##  7 hypc             Hypertension, co… ^402|^… ^I11|…         -1                0
##  8 para             Paralysis         ^3341|… ^G041…          5                7
##  9 ond              Other neurologic… ^3319|… ^G10|…          5                6
## 10 cpd              Chronic pulmonar… ^4168|… ^I278…          3                3
## # … with 21 more rows

d %>%
  filter(icd == "icd10") %>%
  classify_elixhauser(icd_codes = CODE1)

## Joining, by = "label_elixhauser"

## [1] "Element 'regex.rm' NOT in use. Exceptions omitted."

## # A tibble: 6,671 x 11
##    personid CODE1 adm_date   disc_date  gender postingdate icd  
##       <int> <chr> <date>     <date>      <dbl> <date>      <chr>
##  1     1325 196   2001-10-17 2001-11-09      1 2000-01-01  icd10
##  2     1269 K25   2003-08-08 2003-12-06      2 2000-01-01  icd10
##  3     1379 C77   1998-02-08 1998-07-04      2 2000-01-01  icd10
##  4     1280 07022 2003-08-15 2003-10-08      1 2000-01-01  icd10
##  5     1351 B20   1999-10-25 2000-01-31      1 2000-01-01  icd10
##  6     1220 C00   2005-04-02 2005-04-12      2 2000-01-01  icd10
##  7     1432 290   2004-12-01 2004-12-02      1 2000-01-01  icd10
##  8     1226 39891 2002-04-16 2002-04-24      2 2000-01-01  icd10
##  9     1294 115   2001-05-28 2001-07-06      2 2000-01-01  icd10
## 10     1457 B18   2000-12-05 2001-02-20      1 2000-01-01  icd10
## # … with 6,661 more rows, and 4 more variables: class_elixhauser <chr>,
## #   label_elixhauser <chr>, score_AHRQ <dbl>, score_van_Walraven <dbl>

To calculate elixhauser scores for each individual you just need to add sum_score function. The premade classification table contains two alternative scores to be used score_AHRQ and score_van_Walraven both of which can be calculated at one function call.

# Calculate scores
d %>%
  classify_elixhauser(icd_codes = CODE1) %>%
  sum_score(score_AHRQ, score_van_Walraven)

## Joining, by = "label_elixhauser"

## [1] "Element 'regex.rm' NOT in use. Exceptions omitted."

## # A tibble: 300 x 3
##    personid `sum(score_AHRQ)` `sum(score_van_Walraven)`
##       <int>             <dbl>                     <dbl>
##  1     1201                28                        29
##  2     1202                37                        43
##  3     1203                45                        57
##  4     1204                23                        21
##  5     1205                42                        43
##  6     1206                38                        37
##  7     1207                37                        43
##  8     1208                37                        40
##  9     1209                16                        24
## 10     1210                38                        46
## # … with 290 more rows
…
